Baby Names - SQL | Tran Thanh Dat Portfolio
…
# -- Classify first names as 'Classic', 'Semi-classic', 'Semi-trendy', or 'Trendy' 
# -- Alias this column as popularity_type 
# -- Select first_name, the sum of babies who have ever had that name, and popularity_type 
# -- Order the results alphabetically by first_name 

query("SELECT first_name, SUM(num),
    CASE WHEN COUNT(year) > 80 THEN 'Classic'
        WHEN COUNT(year) > 50 THEN 'Semi-classic'
        WHEN COUNT(year) > 20 THEN 'Semi-trendy'
        ELSE 'Trendy' END AS popularity_type
FROM baby_names
GROUP BY first_name
ORDER BY first_name;")

#> # A tibble: 547 × 3
#>    first_name `sum(num, na.rm = TRUE)` popularity_type
#>    <chr>                         <int> <chr>          
#>  1 Aaliyah                       15870 Trendy         
#>  2 Aaron                        530592 Semi-classic   
#>  3 Abigail                      338485 Semi-trendy    
#>  4 Adam                         497293 Semi-trendy    
#>  5 Addison                      107433 Trendy         
#>  6 Adrian                       147741 Semi-trendy    
#>  7 Aidan                         68566 Trendy         
#>  8 Aiden                        216194 Trendy         
#>  9 Alan                         162041 Semi-trendy    
#> 10 Albert                       260945 Semi-trendy    
#> # … with 537 more rows
…
Write a query that selects the year and the maximum num of babies given any male name in that year.

Select the year and the maximum num of babies given any one male name in that year; alias the maximum as max_num.

Filter the data to include only results where sex equals ‘M’.

# -- Select year and maximum number of babies given any one male name in that year, aliased as max_num 
# -- Filter the data to include only results where sex equals 'M' 

query("SELECT year, MAX(num) AS max_num
FROM baby_names
WHERE sex = 'M'
GROUP BY year;")

#> # A tibble: 101 × 2
#>     year max_num
#>    <int>   <int>
#>  1  1920   56914
#>  2  1921   58215
#>  3  1922   57280
#>  4  1923   57469
#>  5  1924   60801
#>  6  1925   60897
#>  7  1926   61130
#>  8  1927   61671
#>  9  1928   60703
#> 10  1929   59804
#> # … with 91 more rows
…
